^C:\USERS\ARNO-W\DOCUMENTS\PROJECTS\POD-POOL\SRC\CORE\ASSERTIONS.CPP|C:\USERS\ARNO-W\DOCUMENTS\PROJECTS\POD-POOL\SRC\CORE\POD\ENTITY-POOL.CPP|C:\USERS\ARNO-W\DOCUMENTS\PROJECTS\POD-POOL\SRC\MAIN.CPP
C:\USERS\ARNO-W\DOCUMENTS\PROJECTS\POD-POOL\VS\POD-POOL\DEBUG\VC120.PDB
C:\USERS\ARNO-W\DOCUMENTS\PROJECTS\POD-POOL\VS\POD-POOL\DEBUG\VC120.IDB
C:\USERS\ARNO-W\DOCUMENTS\PROJECTS\POD-POOL\VS\POD-POOL\DEBUG\ASSERTIONS.OBJ
C:\USERS\ARNO-W\DOCUMENTS\PROJECTS\POD-POOL\VS\POD-POOL\DEBUG\MAIN.OBJ
^C:\USERS\ARNO-W\DOCUMENTS\PROJECTS\POD-POOL\SRC\CORE\ASSERTIONS.CPP
C:\USERS\ARNO-W\DOCUMENTS\PROJECTS\POD-POOL\VS\POD-POOL\DEBUG\VC120.PDB
^C:\USERS\ARNO-W\DOCUMENTS\PROJECTS\POD-POOL\SRC\CORE\POD\ENTITY-POOL.CPP
C:\USERS\ARNO-W\DOCUMENTS\PROJECTS\POD-POOL\VS\POD-POOL\DEBUG\VC120.PDB
C:\USERS\ARNO-W\DOCUMENTS\PROJECTS\POD-POOL\VS\POD-POOL\DEBUG\VC120.IDB
C:\USERS\ARNO-W\DOCUMENTS\PROJECTS\POD-POOL\VS\POD-POOL\DEBUG\ENTITY-POOL.OBJ
^C:\USERS\ARNO-W\DOCUMENTS\PROJECTS\POD-POOL\SRC\MAIN.CPP
C:\USERS\ARNO-W\DOCUMENTS\PROJECTS\POD-POOL\VS\POD-POOL\DEBUG\VC120.PDB
C:\USERS\ARNO-W\DOCUMENTS\PROJECTS\POD-POOL\VS\POD-POOL\DEBUG\VC120.IDB
^C:\USERS\ARNO-W\DOCUMENTS\PROJECTS\POD-POOL\SRC\CORE\POD\ENTITY-POOL.CPP|C:\USERS\ARNO-W\DOCUMENTS\PROJECTS\POD-POOL\SRC\MAIN.CPP
C:\USERS\ARNO-W\DOCUMENTS\PROJECTS\POD-POOL\VS\POD-POOL\DEBUG\VC120.PDB
C:\USERS\ARNO-W\DOCUMENTS\PROJECTS\POD-POOL\VS\POD-POOL\DEBUG\VC120.IDB
C:\USERS\ARNO-W\DOCUMENTS\PROJECTS\POD-POOL\VS\POD-POOL\DEBUG\ENTITY-POOL.OBJ
C:\USERS\ARNO-W\DOCUMENTS\PROJECTS\POD-POOL\VS\POD-POOL\DEBUG\MAIN.OBJ
^C:\USERS\ARNO-W\DOCUMENTS\PROJECTS\POD-POOL\SRC\CORE\POD\ENTITY-MANAGER.CPP|C:\USERS\ARNO-W\DOCUMENTS\PROJECTS\POD-POOL\SRC\MAIN.CPP
C:\USERS\ARNO-W\DOCUMENTS\PROJECTS\POD-POOL\VS\POD-POOL\DEBUG\VC120.PDB
C:\USERS\ARNO-W\DOCUMENTS\PROJECTS\POD-POOL\VS\POD-POOL\DEBUG\VC120.IDB
C:\USERS\ARNO-W\DOCUMENTS\PROJECTS\POD-POOL\VS\POD-POOL\DEBUG\ENTITY-MANAGER.OBJ
C:\USERS\ARNO-W\DOCUMENTS\PROJECTS\POD-POOL\VS\POD-POOL\DEBUG\MAIN.OBJ
^C:\USERS\ARNO-W\DOCUMENTS\PROJECTS\POD-POOL\SRC\CORE\POD\ENTITY-MANAGER.CPP
C:\USERS\ARNO-W\DOCUMENTS\PROJECTS\POD-POOL\VS\POD-POOL\DEBUG\VC120.PDB
^C:\USERS\ARNO-W\DOCUMENTS\PROJECTS\POD-POOL\SRC\CORE\POD\COMPONENT-POOL.CPP|C:\USERS\ARNO-W\DOCUMENTS\PROJECTS\POD-POOL\SRC\CORE\POD\ENTITY-MANAGER.CPP
C:\USERS\ARNO-W\DOCUMENTS\PROJECTS\POD-POOL\VS\POD-POOL\DEBUG\VC120.PDB
C:\USERS\ARNO-W\DOCUMENTS\PROJECTS\POD-POOL\VS\POD-POOL\DEBUG\VC120.IDB
C:\USERS\ARNO-W\DOCUMENTS\PROJECTS\POD-POOL\VS\POD-POOL\DEBUG\COMPONENT-POOL.OBJ
C:\USERS\ARNO-W\DOCUMENTS\PROJECTS\POD-POOL\VS\POD-POOL\DEBUG\ENTITY-MANAGER.OBJ
^C:\USERS\ARNO-W\DOCUMENTS\PROJECTS\POD-POOL\SRC\CORE\POD\COMPONENT-POOL.CPP
C:\USERS\ARNO-W\DOCUMENTS\PROJECTS\POD-POOL\VS\POD-POOL\DEBUG\VC120.PDB
C:\USERS\ARNO-W\DOCUMENTS\PROJECTS\POD-POOL\VS\POD-POOL\DEBUG\VC120.IDB
C:\USERS\ARNO-W\DOCUMENTS\PROJECTS\POD-POOL\VS\POD-POOL\DEBUG\COMPONENT-POOL.OBJ
^C:\USERS\ARNO-W\DOCUMENTS\PROJECTS\POD-POOL\SRC\CORE\POD\COMPONENT-POOL.CPP|C:\USERS\ARNO-W\DOCUMENTS\PROJECTS\POD-POOL\SRC\CORE\POD\ENTITY-MANAGER.CPP|C:\USERS\ARNO-W\DOCUMENTS\PROJECTS\POD-POOL\SRC\CORE\POD\RESOURCE-POOL.CPP|C:\USERS\ARNO-W\DOCUMENTS\PROJECTS\POD-POOL\SRC\MAIN.CPP
C:\USERS\ARNO-W\DOCUMENTS\PROJECTS\POD-POOL\VS\POD-POOL\DEBUG\VC120.PDB
C:\USERS\ARNO-W\DOCUMENTS\PROJECTS\POD-POOL\VS\POD-POOL\DEBUG\VC120.IDB
C:\USERS\ARNO-W\DOCUMENTS\PROJECTS\POD-POOL\VS\POD-POOL\DEBUG\COMPONENT-POOL.OBJ
C:\USERS\ARNO-W\DOCUMENTS\PROJECTS\POD-POOL\VS\POD-POOL\DEBUG\ENTITY-MANAGER.OBJ
C:\USERS\ARNO-W\DOCUMENTS\PROJECTS\POD-POOL\VS\POD-POOL\DEBUG\RESOURCE-POOL.OBJ
C:\USERS\ARNO-W\DOCUMENTS\PROJECTS\POD-POOL\VS\POD-POOL\DEBUG\MAIN.OBJ
^C:\USERS\ARNO-W\DOCUMENTS\PROJECTS\POD-POOL\SRC\CORE\POD\RESOURCE-POOL.CPP
C:\USERS\ARNO-W\DOCUMENTS\PROJECTS\POD-POOL\VS\POD-POOL\DEBUG\VC120.PDB
C:\USERS\ARNO-W\DOCUMENTS\PROJECTS\POD-POOL\VS\POD-POOL\DEBUG\VC120.IDB
^C:\USERS\ARNO-W\DOCUMENTS\PROJECTS\POD-POOL\SRC\CORE\POD\RESOURCE-POOL.CPP|C:\USERS\ARNO-W\DOCUMENTS\PROJECTS\POD-POOL\SRC\MAIN.CPP
C:\USERS\ARNO-W\DOCUMENTS\PROJECTS\POD-POOL\VS\POD-POOL\DEBUG\VC120.PDB
C:\USERS\ARNO-W\DOCUMENTS\PROJECTS\POD-POOL\VS\POD-POOL\DEBUG\VC120.IDB
C:\USERS\ARNO-W\DOCUMENTS\PROJECTS\POD-POOL\VS\POD-POOL\DEBUG\MAIN.OBJ
^C:\USERS\ARNO-W\DOCUMENTS\PROJECTS\POD-POOL\SRC\CORE\POD\COMPONENT-POOL.CPP|C:\USERS\ARNO-W\DOCUMENTS\PROJECTS\POD-POOL\SRC\CORE\POD\ENTITY-MANAGER.CPP|C:\USERS\ARNO-W\DOCUMENTS\PROJECTS\POD-POOL\SRC\CORE\POD\RESOURCE-POOL.CPP
C:\USERS\ARNO-W\DOCUMENTS\PROJECTS\POD-POOL\VS\POD-POOL\DEBUG\VC120.PDB
C:\USERS\ARNO-W\DOCUMENTS\PROJECTS\POD-POOL\VS\POD-POOL\DEBUG\VC120.IDB
C:\USERS\ARNO-W\DOCUMENTS\PROJECTS\POD-POOL\VS\POD-POOL\DEBUG\COMPONENT-POOL.OBJ
C:\USERS\ARNO-W\DOCUMENTS\PROJECTS\POD-POOL\VS\POD-POOL\DEBUG\ENTITY-MANAGER.OBJ
^C:\USERS\ARNO-W\DOCUMENTS\PROJECTS\POD-POOL\SRC\CORE\ALLOC.CPP|C:\USERS\ARNO-W\DOCUMENTS\PROJECTS\POD-POOL\SRC\CORE\POD\COMPONENT-POOL.CPP|C:\USERS\ARNO-W\DOCUMENTS\PROJECTS\POD-POOL\SRC\CORE\POD\ENTITY-MANAGER.CPP|C:\USERS\ARNO-W\DOCUMENTS\PROJECTS\POD-POOL\SRC\CORE\POD\RESOURCE-POOL.CPP
C:\USERS\ARNO-W\DOCUMENTS\PROJECTS\POD-POOL\VS\POD-POOL\DEBUG\VC120.PDB
C:\USERS\ARNO-W\DOCUMENTS\PROJECTS\POD-POOL\VS\POD-POOL\DEBUG\VC120.IDB
C:\USERS\ARNO-W\DOCUMENTS\PROJECTS\POD-POOL\VS\POD-POOL\DEBUG\COMPONENT-POOL.OBJ
C:\USERS\ARNO-W\DOCUMENTS\PROJECTS\POD-POOL\VS\POD-POOL\DEBUG\ENTITY-MANAGER.OBJ
^C:\USERS\ARNO-W\DOCUMENTS\PROJECTS\POD-POOL\SRC\CORE\ALLOC.CPP
C:\USERS\ARNO-W\DOCUMENTS\PROJECTS\POD-POOL\VS\POD-POOL\DEBUG\VC120.PDB
C:\USERS\ARNO-W\DOCUMENTS\PROJECTS\POD-POOL\VS\POD-POOL\DEBUG\VC120.IDB
C:\USERS\ARNO-W\DOCUMENTS\PROJECTS\POD-POOL\VS\POD-POOL\DEBUG\ALLOC.OBJ
